8. Niet-parametrische statistieken
…
Comet assay

dna <- read_delim("https://raw.githubusercontent.com/statOmics/sbc20/master/data/dna.txt",delim=" ")
dna <- dna %>%
  mutate(dose = as.factor(dna$dose))
dna

# A tibble: 24 x 3
   id    length dose 
   <chr>  <dbl> <fct>
 1 Rat1    19.3 0    
 2 Rat2    18.9 0    
 3 Rat3    18.6 0    
 4 Rat4    19.0 0    
 5 Rat5    17.1 0    
 6 Rat6    18.8 0    
 7 Rat7    55.4 1.25 
 8 Rat8    59.2 1.25 
 9 Rat9    59.1 1.25 
10 Rat10   52.1 1.25 
#  with 14 more rows
…
